<?xml version="1.0" encoding="utf-8"?>
<!DOCTYPE eagle SYSTEM "eagle.dtd">
<eagle version="7.2.0">
<drawing>
<settings>
<setting alwaysvectorfont="no"/>
<setting verticaltext="up"/>
</settings>
<grid distance="0.05" unitdist="inch" unit="mm" style="lines" multiple="1" display="yes" altdistance="0.127" altunitdist="mm" altunit="mm"/>
<layers>
<layer number="1" name="Top" color="4" fill="1" visible="yes" active="yes"/>
<layer number="16" name="Bottom" color="1" fill="1" visible="yes" active="yes"/>
<layer number="17" name="Pads" color="2" fill="1" visible="yes" active="yes"/>
<layer number="18" name="Vias" color="2" fill="1" visible="yes" active="yes"/>
<layer number="19" name="Unrouted" color="6" fill="1" visible="yes" active="yes"/>
<layer number="20" name="Dimension" color="15" fill="1" visible="yes" active="yes"/>
<layer number="21" name="tPlace" color="7" fill="1" visible="yes" active="yes"/>
<layer number="22" name="bPlace" color="7" fill="1" visible="yes" active="yes"/>
<layer number="23" name="tOrigins" color="15" fill="1" visible="yes" active="yes"/>
<layer number="24" name="bOrigins" color="15" fill="1" visible="yes" active="yes"/>
<layer number="25" name="tNames" color="7" fill="1" visible="yes" active="yes"/>
<layer number="26" name="bNames" color="7" fill="1" visible="yes" active="yes"/>
<layer number="27" name="tValues" color="7" fill="1" visible="yes" active="yes"/>
<layer number="28" name="bValues" color="7" fill="1" visible="yes" active="yes"/>
<layer number="29" name="tStop" color="7" fill="3" visible="yes" active="yes"/>
<layer number="30" name="bStop" color="7" fill="6" visible="yes" active="yes"/>
<layer number="31" name="tCream" color="7" fill="4" visible="yes" active="yes"/>
<layer number="32" name="bCream" color="7" fill="5" visible="yes" active="yes"/>
<layer number="33" name="tFinish" color="6" fill="3" visible="yes" active="yes"/>
<layer number="34" name="bFinish" color="6" fill="6" visible="yes" active="yes"/>
<layer number="35" name="tGlue" color="7" fill="4" visible="yes" active="yes"/>
<layer number="36" name="bGlue" color="7" fill="5" visible="yes" active="yes"/>
<layer number="37" name="tTest" color="7" fill="1" visible="yes" active="yes"/>
<layer number="38" name="bTest" color="7" fill="1" visible="yes" active="yes"/>
<layer number="39" name="tKeepout" color="4" fill="11" visible="yes" active="yes"/>
<layer number="40" name="bKeepout" color="1" fill="11" visible="yes" active="yes"/>
<layer number="41" name="tRestrict" color="4" fill="10" visible="yes" active="yes"/>
<layer number="42" name="bRestrict" color="1" fill="10" visible="yes" active="yes"/>
<layer number="43" name="vRestrict" color="2" fill="10" visible="yes" active="yes"/>
<layer number="44" name="Drills" color="7" fill="1" visible="yes" active="yes"/>
<layer number="45" name="Holes" color="7" fill="1" visible="yes" active="yes"/>
<layer number="46" name="Milling" color="3" fill="1" visible="yes" active="yes"/>
<layer number="47" name="Measures" color="7" fill="1" visible="yes" active="yes"/>
<layer number="48" name="Document" color="7" fill="1" visible="yes" active="yes"/>
<layer number="49" name="Reference" color="7" fill="1" visible="yes" active="yes"/>
<layer number="51" name="tDocu" color="7" fill="1" visible="yes" active="yes"/>
<layer number="52" name="bDocu" color="7" fill="1" visible="yes" active="yes"/>
<layer number="90" name="Modules" color="5" fill="1" visible="no" active="no"/>
<layer number="91" name="Nets" color="2" fill="1" visible="no" active="no"/>
<layer number="92" name="Busses" color="1" fill="1" visible="no" active="no"/>
<layer number="93" name="Pins" color="2" fill="1" visible="no" active="no"/>
<layer number="94" name="Symbols" color="4" fill="1" visible="no" active="no"/>
<layer number="95" name="Names" color="7" fill="1" visible="no" active="no"/>
<layer number="96" name="Values" color="7" fill="1" visible="no" active="no"/>
<layer number="97" name="Info" color="7" fill="1" visible="no" active="no"/>
<layer number="98" name="Guide" color="6" fill="1" visible="no" active="no"/>
</layers>
<board>
<plain>
<wire x1="7.62" y1="73.66" x2="7.62" y2="59.69" width="0.254" layer="20"/>
<wire x1="7.62" y1="59.69" x2="0" y2="59.69" width="0.254" layer="20"/>
<wire x1="0" y1="59.69" x2="0" y2="38.1" width="0.254" layer="20"/>
<wire x1="0" y1="38.1" x2="1.27" y2="38.1" width="0.254" layer="20"/>
<wire x1="1.27" y1="38.1" x2="1.27" y2="35.56" width="0.254" layer="20"/>
<wire x1="1.27" y1="35.56" x2="0" y2="35.56" width="0.254" layer="20"/>
<wire x1="0" y1="35.56" x2="0" y2="6.35" width="0.254" layer="20"/>
<wire x1="0" y1="6.35" x2="55.88" y2="6.35" width="0.254" layer="20"/>
<wire x1="55.88" y1="6.35" x2="55.88" y2="33.02" width="0.254" layer="20"/>
<wire x1="55.88" y1="33.02" x2="54.61" y2="33.02" width="0.254" layer="20"/>
<wire x1="54.61" y1="33.02" x2="54.61" y2="38.1" width="0.254" layer="20"/>
<wire x1="54.61" y1="38.1" x2="55.88" y2="38.1" width="0.254" layer="20"/>
<wire x1="55.88" y1="38.1" x2="55.88" y2="59.69" width="0.254" layer="20"/>
<wire x1="55.88" y1="59.69" x2="48.26" y2="59.69" width="0.254" layer="20"/>
<wire x1="48.26" y1="59.69" x2="48.26" y2="73.66" width="0.254" layer="20"/>
<wire x1="48.26" y1="73.66" x2="7.62" y2="73.66" width="0.254" layer="20"/>
<circle x="27.94" y="36.83" radius="3.0585625" width="0.254" layer="20"/>
</plain>
<libraries>
<library name="svi_cartridge">
<packages>
<package name="EDGE_CONNECTOR_30">
<smd name="VCC@2" x="-29.21" y="6.35" dx="10.16" dy="1.9304" layer="1" rot="R90"/>
<smd name="A12" x="-26.67" y="6.35" dx="10.16" dy="1.9304" layer="1" rot="R90"/>
<smd name="A13" x="-24.13" y="6.35" dx="10.16" dy="1.9304" layer="1" rot="R90"/>
<smd name="A8" x="-21.59" y="6.35" dx="10.16" dy="1.9304" layer="1" rot="R90"/>
<smd name="A9" x="-19.05" y="6.35" dx="10.16" dy="1.9304" layer="1" rot="R90"/>
<smd name="A11" x="-16.51" y="6.35" dx="10.16" dy="1.9304" layer="1" rot="R90"/>
<smd name="A2" x="-13.97" y="6.35" dx="10.16" dy="1.9304" layer="1" rot="R90"/>
<smd name="A1" x="-11.43" y="6.35" dx="10.16" dy="1.9304" layer="1" rot="R90"/>
<smd name="D7" x="-8.89" y="6.35" dx="10.16" dy="1.9304" layer="1" rot="R90"/>
<smd name="D6" x="-6.35" y="6.35" dx="10.16" dy="1.9304" layer="1" rot="R90"/>
<smd name="D5" x="-3.81" y="6.35" dx="10.16" dy="1.9304" layer="1" rot="R90"/>
<smd name="D4" x="-1.27" y="6.35" dx="10.16" dy="1.9304" layer="1" rot="R90"/>
<smd name="CS4" x="1.27" y="6.35" dx="10.16" dy="1.9304" layer="1" rot="R90"/>
<smd name="CS2" x="3.81" y="6.35" dx="10.16" dy="1.9304" layer="1" rot="R90"/>
<smd name="GND@2" x="6.35" y="6.35" dx="10.16" dy="1.9304" layer="1" rot="R90"/>
<smd name="VCC@1" x="-29.21" y="6.35" dx="10.16" dy="1.9304" layer="16" rot="R90"/>
<smd name="A7" x="-26.67" y="6.35" dx="10.16" dy="1.9304" layer="16" rot="R90"/>
<smd name="A6" x="-24.13" y="6.35" dx="10.16" dy="1.9304" layer="16" rot="R90"/>
<smd name="A5" x="-21.59" y="6.35" dx="10.16" dy="1.9304" layer="16" rot="R90"/>
<smd name="A4" x="-19.05" y="6.35" dx="10.16" dy="1.9304" layer="16" rot="R90"/>
<smd name="A3" x="-16.51" y="6.35" dx="10.16" dy="1.9304" layer="16" rot="R90"/>
<smd name="A10" x="-13.97" y="6.35" dx="10.16" dy="1.9304" layer="16" rot="R90"/>
<smd name="A0" x="-11.43" y="6.35" dx="10.16" dy="1.9304" layer="16" rot="R90"/>
<smd name="D0" x="-8.89" y="6.35" dx="10.16" dy="1.9304" layer="16" rot="R90"/>
<smd name="D1" x="-6.35" y="6.35" dx="10.16" dy="1.9304" layer="16" rot="R90"/>
<smd name="D2" x="-3.81" y="6.35" dx="10.16" dy="1.9304" layer="16" rot="R90"/>
<smd name="D3" x="-1.27" y="6.35" dx="10.16" dy="1.9304" layer="16" rot="R90"/>
<smd name="CS3" x="1.27" y="6.35" dx="10.16" dy="1.9304" layer="16" rot="R90"/>
<smd name="CS1" x="3.81" y="6.35" dx="10.16" dy="1.9304" layer="16" rot="R90"/>
<smd name="GND@1" x="6.35" y="6.35" dx="10.16" dy="1.9304" layer="16" rot="R90"/>
</package>
</packages>
</library>
<library name="memory-nec">
<description>&lt;b&gt;NEC Memories&lt;/b&gt;&lt;p&gt;
&lt;author&gt;Created by librarian@cadsoft.de&lt;/author&gt;</description>
<packages>
<package name="DIL32">
<description>&lt;b&gt;Dual In Line Package&lt;/b&gt;</description>
<wire x1="20.32" y1="6.731" x2="-20.32" y2="6.731" width="0.1524" layer="21"/>
<wire x1="-20.32" y1="-6.731" x2="20.32" y2="-6.731" width="0.1524" layer="21"/>
<wire x1="20.32" y1="6.731" x2="20.32" y2="-6.731" width="0.1524" layer="21"/>
<wire x1="-20.32" y1="6.731" x2="-20.32" y2="1.016" width="0.1524" layer="21"/>
<wire x1="-20.32" y1="-6.731" x2="-20.32" y2="-1.016" width="0.1524" layer="21"/>
<wire x1="-20.32" y1="1.016" x2="-20.32" y2="-1.016" width="0.1524" layer="21" curve="-180"/>
<pad name="1" x="-19.05" y="-7.62" drill="0.8128" shape="long" rot="R90"/>
<pad name="2" x="-16.51" y="-7.62" drill="0.8128" shape="long" rot="R90"/>
<pad name="7" x="-3.81" y="-7.62" drill="0.8128" shape="long" rot="R90"/>
<pad name="8" x="-1.27" y="-7.62" drill="0.8128" shape="long" rot="R90"/>
<pad name="3" x="-13.97" y="-7.62" drill="0.8128" shape="long" rot="R90"/>
<pad name="4" x="-11.43" y="-7.62" drill="0.8128" shape="long" rot="R90"/>
<pad name="6" x="-6.35" y="-7.62" drill="0.8128" shape="long" rot="R90"/>
<pad name="5" x="-8.89" y="-7.62" drill="0.8128" shape="long" rot="R90"/>
<pad name="9" x="1.27" y="-7.62" drill="0.8128" shape="long" rot="R90"/>
<pad name="10" x="3.81" y="-7.62" drill="0.8128" shape="long" rot="R90"/>
<pad name="11" x="6.35" y="-7.62" drill="0.8128" shape="long" rot="R90"/>
<pad name="12" x="8.89" y="-7.62" drill="0.8128" shape="long" rot="R90"/>
<pad name="13" x="11.43" y="-7.62" drill="0.8128" shape="long" rot="R90"/>
<pad name="14" x="13.97" y="-7.62" drill="0.8128" shape="long" rot="R90"/>
<pad name="15" x="16.51" y="-7.62" drill="0.8128" shape="long" rot="R90"/>
<pad name="16" x="19.05" y="-7.62" drill="0.8128" shape="long" rot="R90"/>
<pad name="17" x="19.05" y="7.62" drill="0.8128" shape="long" rot="R90"/>
<pad name="18" x="16.51" y="7.62" drill="0.8128" shape="long" rot="R90"/>
<pad name="19" x="13.97" y="7.62" drill="0.8128" shape="long" rot="R90"/>
<pad name="20" x="11.43" y="7.62" drill="0.8128" shape="long" rot="R90"/>
<pad name="21" x="8.89" y="7.62" drill="0.8128" shape="long" rot="R90"/>
<pad name="22" x="6.35" y="7.62" drill="0.8128" shape="long" rot="R90"/>
<pad name="23" x="3.81" y="7.62" drill="0.8128" shape="long" rot="R90"/>
<pad name="24" x="1.27" y="7.62" drill="0.8128" shape="long" rot="R90"/>
<pad name="25" x="-1.27" y="7.62" drill="0.8128" shape="long" rot="R90"/>
<pad name="26" x="-3.81" y="7.62" drill="0.8128" shape="long" rot="R90"/>
<pad name="27" x="-6.35" y="7.62" drill="0.8128" shape="long" rot="R90"/>
<pad name="28" x="-8.89" y="7.62" drill="0.8128" shape="long" rot="R90"/>
<pad name="29" x="-11.43" y="7.62" drill="0.8128" shape="long" rot="R90"/>
<pad name="30" x="-13.97" y="7.62" drill="0.8128" shape="long" rot="R90"/>
<pad name="31" x="-16.51" y="7.62" drill="0.8128" shape="long" rot="R90"/>
<pad name="32" x="-19.05" y="7.62" drill="0.8128" shape="long" rot="R90"/>
<text x="-20.701" y="-6.604" size="1.778" layer="25" rot="R90">&gt;NAME</text>
<text x="-16.891" y="-0.889" size="1.778" layer="27">&gt;VALUE</text>
</package>
</packages>
</library>
<library name="pal">
<description>&lt;b&gt;PALs&lt;/b&gt;&lt;p&gt;
&lt;author&gt;Created by librarian@cadsoft.de&lt;/author&gt;</description>
<packages>
<package name="DIL20">
<description>&lt;b&gt;Dual In Line Package&lt;/b&gt;</description>
<wire x1="12.7" y1="2.921" x2="-12.7" y2="2.921" width="0.1524" layer="21"/>
<wire x1="-12.7" y1="-2.921" x2="12.7" y2="-2.921" width="0.1524" layer="21"/>
<wire x1="12.7" y1="2.921" x2="12.7" y2="-2.921" width="0.1524" layer="21"/>
<wire x1="-12.7" y1="2.921" x2="-12.7" y2="1.016" width="0.1524" layer="21"/>
<wire x1="-12.7" y1="-2.921" x2="-12.7" y2="-1.016" width="0.1524" layer="21"/>
<wire x1="-12.7" y1="1.016" x2="-12.7" y2="-1.016" width="0.1524" layer="21" curve="-180"/>
<pad name="1" x="-11.43" y="-3.81" drill="0.8128" shape="long" rot="R90"/>
<pad name="2" x="-8.89" y="-3.81" drill="0.8128" shape="long" rot="R90"/>
<pad name="7" x="3.81" y="-3.81" drill="0.8128" shape="long" rot="R90"/>
<pad name="8" x="6.35" y="-3.81" drill="0.8128" shape="long" rot="R90"/>
<pad name="3" x="-6.35" y="-3.81" drill="0.8128" shape="long" rot="R90"/>
<pad name="4" x="-3.81" y="-3.81" drill="0.8128" shape="long" rot="R90"/>
<pad name="6" x="1.27" y="-3.81" drill="0.8128" shape="long" rot="R90"/>
<pad name="5" x="-1.27" y="-3.81" drill="0.8128" shape="long" rot="R90"/>
<pad name="9" x="8.89" y="-3.81" drill="0.8128" shape="long" rot="R90"/>
<pad name="10" x="11.43" y="-3.81" drill="0.8128" shape="long" rot="R90"/>
<pad name="11" x="11.43" y="3.81" drill="0.8128" shape="long" rot="R90"/>
<pad name="12" x="8.89" y="3.81" drill="0.8128" shape="long" rot="R90"/>
<pad name="13" x="6.35" y="3.81" drill="0.8128" shape="long" rot="R90"/>
<pad name="14" x="3.81" y="3.81" drill="0.8128" shape="long" rot="R90"/>
<pad name="15" x="1.27" y="3.81" drill="0.8128" shape="long" rot="R90"/>
<pad name="16" x="-1.27" y="3.81" drill="0.8128" shape="long" rot="R90"/>
<pad name="17" x="-3.81" y="3.81" drill="0.8128" shape="long" rot="R90"/>
<pad name="18" x="-6.35" y="3.81" drill="0.8128" shape="long" rot="R90"/>
<pad name="19" x="-8.89" y="3.81" drill="0.8128" shape="long" rot="R90"/>
<pad name="20" x="-11.43" y="3.81" drill="0.8128" shape="long" rot="R90"/>
<text x="-13.081" y="-3.048" size="1.27" layer="25" rot="R90">&gt;NAME</text>
<text x="-9.779" y="-0.381" size="1.27" layer="27">&gt;VALUE</text>
</package>
</packages>
</library>
<library name="con-lstb">
<description>&lt;b&gt;Pin Headers&lt;/b&gt;&lt;p&gt;
Naming:&lt;p&gt;
MA = male&lt;p&gt;
# contacts - # rows&lt;p&gt;
W = angled&lt;p&gt;
&lt;author&gt;Created by librarian@cadsoft.de&lt;/author&gt;</description>
<packages>
<package name="MA04-2">
<description>&lt;b&gt;PIN HEADER&lt;/b&gt;</description>
<wire x1="-4.445" y1="2.54" x2="-3.175" y2="2.54" width="0.1524" layer="21"/>
<wire x1="-3.175" y1="2.54" x2="-2.54" y2="1.905" width="0.1524" layer="21"/>
<wire x1="-2.54" y1="1.905" x2="-1.905" y2="2.54" width="0.1524" layer="21"/>
<wire x1="-1.905" y1="2.54" x2="-0.635" y2="2.54" width="0.1524" layer="21"/>
<wire x1="-0.635" y1="2.54" x2="0" y2="1.905" width="0.1524" layer="21"/>
<wire x1="-4.445" y1="2.54" x2="-5.08" y2="1.905" width="0.1524" layer="21"/>
<wire x1="0" y1="1.905" x2="0.635" y2="2.54" width="0.1524" layer="21"/>
<wire x1="0.635" y1="2.54" x2="1.905" y2="2.54" width="0.1524" layer="21"/>
<wire x1="1.905" y1="2.54" x2="2.54" y2="1.905" width="0.1524" layer="21"/>
<wire x1="3.175" y1="2.54" x2="4.445" y2="2.54" width="0.1524" layer="21"/>
<wire x1="3.175" y1="2.54" x2="2.54" y2="1.905" width="0.1524" layer="21"/>
<wire x1="4.445" y1="2.54" x2="5.08" y2="1.905" width="0.1524" layer="21"/>
<wire x1="5.08" y1="1.905" x2="5.08" y2="-1.905" width="0.1524" layer="21"/>
<wire x1="-2.54" y1="-1.905" x2="-3.175" y2="-2.54" width="0.1524" layer="21"/>
<wire x1="0" y1="-1.905" x2="-0.635" y2="-2.54" width="0.1524" layer="21"/>
<wire x1="-0.635" y1="-2.54" x2="-1.905" y2="-2.54" width="0.1524" layer="21"/>
<wire x1="-1.905" y1="-2.54" x2="-2.54" y2="-1.905" width="0.1524" layer="21"/>
<wire x1="-5.08" y1="1.905" x2="-5.08" y2="-1.905" width="0.1524" layer="21"/>
<wire x1="-5.08" y1="-1.905" x2="-4.445" y2="-2.54" width="0.1524" layer="21"/>
<wire x1="-3.175" y1="-2.54" x2="-4.445" y2="-2.54" width="0.1524" layer="21"/>
<wire x1="2.54" y1="-1.905" x2="1.905" y2="-2.54" width="0.1524" layer="21"/>
<wire x1="1.905" y1="-2.54" x2="0.635" y2="-2.54" width="0.1524" layer="21"/>
<wire x1="0.635" y1="-2.54" x2="0" y2="-1.905" width="0.1524" layer="21"/>
<wire x1="2.54" y1="-1.905" x2="3.175" y2="-2.54" width="0.1524" layer="21"/>
<wire x1="4.445" y1="-2.54" x2="3.175" y2="-2.54" width="0.1524" layer="21"/>
<wire x1="5.08" y1="-1.905" x2="4.445" y2="-2.54" width="0.1524" layer="21"/>
<pad name="1" x="-3.81" y="-1.27" drill="1.016" shape="octagon"/>
<pad name="3" x="-1.27" y="-1.27" drill="1.016" shape="octagon"/>
<pad name="5" x="1.27" y="-1.27" drill="1.016" shape="octagon"/>
<pad name="7" x="3.81" y="-1.27" drill="1.016" shape="octagon"/>
<pad name="2" x="-3.81" y="1.27" drill="1.016" shape="octagon"/>
<pad name="4" x="-1.27" y="1.27" drill="1.016" shape="octagon"/>
<pad name="6" x="1.27" y="1.27" drill="1.016" shape="octagon"/>
<pad name="8" x="3.81" y="1.27" drill="1.016" shape="octagon"/>
<text x="-4.318" y="-4.191" size="1.27" layer="21" ratio="10">1</text>
<text x="-5.08" y="2.921" size="1.27" layer="25" ratio="10">&gt;NAME</text>
<text x="0" y="-4.191" size="1.27" layer="27" ratio="10">&gt;VALUE</text>
<text x="3.81" y="2.921" size="1.27" layer="21" ratio="10">8</text>
<rectangle x1="-1.524" y1="-1.524" x2="-1.016" y2="-1.016" layer="51"/>
<rectangle x1="-4.064" y1="-1.524" x2="-3.556" y2="-1.016" layer="51"/>
<rectangle x1="1.016" y1="-1.524" x2="1.524" y2="-1.016" layer="51"/>
<rectangle x1="3.556" y1="-1.524" x2="4.064" y2="-1.016" layer="51"/>
<rectangle x1="-4.064" y1="1.016" x2="-3.556" y2="1.524" layer="51"/>
<rectangle x1="-1.524" y1="1.016" x2="-1.016" y2="1.524" layer="51"/>
<rectangle x1="1.016" y1="1.016" x2="1.524" y2="1.524" layer="51"/>
<rectangle x1="3.556" y1="1.016" x2="4.064" y2="1.524" layer="51"/>
</package>
</packages>
</library>
</libraries>
<attributes>
</attributes>
<variantdefs>
</variantdefs>
<classes>
<class number="0" name="default" width="0" drill="0">
<clearance class="0" value="0.205"/>
</class>
</classes>
<designrules name="default *">
<description language="de">&lt;b&gt;EAGLE Design Rules&lt;/b&gt;
&lt;p&gt;
Die Standard-Design-Rules sind so gewÃÂÃÂÃÂÃÂÃÂÃÂÃÂÃÂ¤hlt, dass sie fÃÂÃÂÃÂÃÂÃÂÃÂÃÂÃÂ¼r 
die meisten Anwendungen passen. Sollte ihre Platine 
besondere Anforderungen haben, treffen Sie die erforderlichen
Einstellungen hier und speichern die Design Rules unter 
einem neuen Namen ab.</description>
<description language="en">&lt;b&gt;EAGLE Design Rules&lt;/b&gt;
&lt;p&gt;
The default Design Rules have been set to cover
a wide range of applications. Your particular design
may have different requirements, so please make the
necessary adjustments and save your customized
design rules under a new name.</description>
<param name="layerSetup" value="(1*16)"/>
<param name="mtCopper" value="0.035mm 0.035mm 0.035mm 0.035mm 0.035mm 0.035mm 0.035mm 0.035mm 0.035mm 0.035mm 0.035mm 0.035mm 0.035mm 0.035mm 0.035mm 0.035mm"/>
<param name="mtIsolate" value="1.5mm 0.15mm 0.2mm 0.15mm 0.2mm 0.15mm 0.2mm 0.15mm 0.2mm 0.15mm 0.2mm 0.15mm 0.2mm 0.15mm 0.2mm"/>
<param name="mdWireWire" value="8mil"/>
<param name="mdWirePad" value="8mil"/>
<param name="mdWireVia" value="8mil"/>
<param name="mdPadPad" value="8mil"/>
<param name="mdPadVia" value="8mil"/>
<param name="mdViaVia" value="8mil"/>
<param name="mdSmdPad" value="8mil"/>
<param name="mdSmdVia" value="8mil"/>
<param name="mdSmdSmd" value="8mil"/>
<param name="mdViaViaSameLayer" value="8mil"/>
<param name="mnLayersViaInSmd" value="2"/>
<param name="mdCopperDimension" value="40mil"/>
<param name="mdDrill" value="8mil"/>
<param name="mdSmdStop" value="0mil"/>
<param name="msWidth" value="20mil"/>
<param name="msDrill" value="24mil"/>
<param name="msMicroVia" value="9.99mm"/>
<param name="msBlindViaRatio" value="0.5"/>
<param name="rvPadTop" value="0.25"/>
<param name="rvPadInner" value="0.25"/>
<param name="rvPadBottom" value="0.25"/>
<param name="rvViaOuter" value="0.25"/>
<param name="rvViaInner" value="0.25"/>
<param name="rvMicroViaOuter" value="0.25"/>
<param name="rvMicroViaInner" value="0.25"/>
<param name="rlMinPadTop" value="10mil"/>
<param name="rlMaxPadTop" value="20mil"/>
<param name="rlMinPadInner" value="10mil"/>
<param name="rlMaxPadInner" value="20mil"/>
<param name="rlMinPadBottom" value="10mil"/>
<param name="rlMaxPadBottom" value="20mil"/>
<param name="rlMinViaOuter" value="8mil"/>
<param name="rlMaxViaOuter" value="20mil"/>
<param name="rlMinViaInner" value="8mil"/>
<param name="rlMaxViaInner" value="20mil"/>
<param name="rlMinMicroViaOuter" value="4mil"/>
<param name="rlMaxMicroViaOuter" value="20mil"/>
<param name="rlMinMicroViaInner" value="4mil"/>
<param name="rlMaxMicroViaInner" value="20mil"/>
<param name="psTop" value="-1"/>
<param name="psBottom" value="-1"/>
<param name="psFirst" value="-1"/>
<param name="psElongationLong" value="100"/>
<param name="psElongationOffset" value="100"/>
<param name="mvStopFrame" value="1"/>
<param name="mvCreamFrame" value="0"/>
<param name="mlMinStopFrame" value="4mil"/>
<param name="mlMaxStopFrame" value="4mil"/>
<param name="mlMinCreamFrame" value="0mil"/>
<param name="mlMaxCreamFrame" value="0mil"/>
<param name="mlViaStopLimit" value="0mil"/>
<param name="srRoundness" value="0"/>
<param name="srMinRoundness" value="0mil"/>
<param name="srMaxRoundness" value="0mil"/>
<param name="slThermalIsolate" value="10mil"/>
<param name="slThermalsForVias" value="0"/>
<param name="dpMaxLengthDifference" value="10mm"/>
<param name="dpGapFactor" value="2.5"/>
<param name="checkGrid" value="0"/>
<param name="checkAngle" value="0"/>
<param name="checkFont" value="1"/>
<param name="checkRestrict" value="1"/>
<param name="useDiameter" value="13"/>
<param name="maxErrors" value="50"/>
</designrules>
<autorouter>
<pass name="Default">
<param name="RoutingGrid" value="0.125mm"/>
<param name="AutoGrid" value="1"/>
<param name="Efforts" value="2"/>
<param name="TopRouterVariant" value="1"/>
<param name="tpViaShape" value="round"/>
<param name="PrefDir.1" value="a"/>
<param name="PrefDir.2" value="0"/>
<param name="PrefDir.3" value="0"/>
<param name="PrefDir.4" value="0"/>
<param name="PrefDir.5" value="0"/>
<param name="PrefDir.6" value="0"/>
<param name="PrefDir.7" value="0"/>
<param name="PrefDir.8" value="0"/>
<param name="PrefDir.9" value="0"/>
<param name="PrefDir.10" value="0"/>
<param name="PrefDir.11" value="0"/>
<param name="PrefDir.12" value="0"/>
<param name="PrefDir.13" value="0"/>
<param name="PrefDir.14" value="0"/>
<param name="PrefDir.15" value="0"/>
<param name="PrefDir.16" value="a"/>
<param name="cfVia" value="8"/>
<param name="cfNonPref" value="5"/>
<param name="cfChangeDir" value="2"/>
<param name="cfOrthStep" value="2"/>
<param name="cfDiagStep" value="3"/>
<param name="cfExtdStep" value="0"/>
<param name="cfBonusStep" value="1"/>
<param name="cfMalusStep" value="1"/>
<param name="cfPadImpact" value="4"/>
<param name="cfSmdImpact" value="4"/>
<param name="cfBusImpact" value="0"/>
<param name="cfHugging" value="3"/>
<param name="cfAvoid" value="4"/>
<param name="cfPolygon" value="10"/>
<param name="cfBase.1" value="0"/>
<param name="cfBase.2" value="1"/>
<param name="cfBase.3" value="1"/>
<param name="cfBase.4" value="1"/>
<param name="cfBase.5" value="1"/>
<param name="cfBase.6" value="1"/>
<param name="cfBase.7" value="1"/>
<param name="cfBase.8" value="1"/>
<param name="cfBase.9" value="1"/>
<param name="cfBase.10" value="1"/>
<param name="cfBase.11" value="1"/>
<param name="cfBase.12" value="1"/>
<param name="cfBase.13" value="1"/>
<param name="cfBase.14" value="1"/>
<param name="cfBase.15" value="1"/>
<param name="cfBase.16" value="0"/>
<param name="mnVias" value="20"/>
<param name="mnSegments" value="9999"/>
<param name="mnExtdSteps" value="9999"/>
<param name="mnRipupLevel" value="10"/>
<param name="mnRipupSteps" value="100"/>
<param name="mnRipupTotal" value="100"/>
</pass>
<pass name="Follow-me" refer="Default" active="yes">
</pass>
<pass name="Busses" refer="Default" active="yes">
<param name="cfNonPref" value="4"/>
<param name="cfBusImpact" value="4"/>
<param name="cfHugging" value="0"/>
<param name="mnVias" value="0"/>
</pass>
<pass name="Route" refer="Default" active="yes">
</pass>
<pass name="Optimize1" refer="Default" active="yes">
<param name="cfVia" value="99"/>
<param name="cfExtdStep" value="10"/>
<param name="cfHugging" value="1"/>
<param name="mnExtdSteps" value="1"/>
<param name="mnRipupLevel" value="0"/>
</pass>
<pass name="Optimize2" refer="Optimize1" active="yes">
<param name="cfNonPref" value="0"/>
<param name="cfChangeDir" value="6"/>
<param name="cfExtdStep" value="0"/>
<param name="cfBonusStep" value="2"/>
<param name="cfMalusStep" value="2"/>
<param name="cfPadImpact" value="2"/>
<param name="cfSmdImpact" value="2"/>
<param name="cfHugging" value="0"/>
</pass>
<pass name="Optimize3" refer="Optimize2" active="yes">
<param name="cfChangeDir" value="8"/>
<param name="cfPadImpact" value="0"/>
<param name="cfSmdImpact" value="0"/>
</pass>
<pass name="Optimize4" refer="Optimize3" active="yes">
<param name="cfChangeDir" value="25"/>
</pass>
</autorouter>
<elements>
<element name="EDGE1" library="svi_cartridge" package="EDGE_CONNECTOR_30" value="SVI_CARTRIDGE" x="39.37" y="62.23"/>
<element name="IC1" library="memory-nec" package="DIL32" value="" x="22.86" y="49.53">
<attribute name="OC_NEWARK" value="78M7615" x="22.86" y="49.53" size="1.778" layer="27" display="off"/>
<attribute name="MPN" value="M27C1001-15F1" x="22.86" y="49.53" size="1.778" layer="27" display="off"/>
<attribute name="MF" value="" x="22.86" y="49.53" size="1.778" layer="27" display="off"/>
<attribute name="OC_FARNELL" value="1661756" x="22.86" y="49.53" size="1.778" layer="27" display="off"/>
</element>
<element name="IC2" library="pal" package="DIL20" value="" x="38.1" y="17.78" rot="R180">
<attribute name="OC_NEWARK" value="97K0449" x="38.1" y="17.78" size="1.778" layer="27" rot="R180" display="off"/>
<attribute name="MPN" value="GAL16V8D-7LPN" x="38.1" y="17.78" size="1.778" layer="27" rot="R180" display="off"/>
<attribute name="MF" value="" x="38.1" y="17.78" size="1.778" layer="27" rot="R180" display="off"/>
<attribute name="OC_FARNELL" value="9699740" x="38.1" y="17.78" size="1.778" layer="27" rot="R180" display="off"/>
</element>
<element name="SV1" library="con-lstb" package="MA04-2" value="" x="33.02" y="29.21">
<attribute name="OC_NEWARK" value="unknown" x="33.02" y="29.21" size="1.778" layer="27" display="off"/>
<attribute name="MPN" value="" x="33.02" y="29.21" size="1.778" layer="27" display="off"/>
<attribute name="MF" value="" x="33.02" y="29.21" size="1.778" layer="27" display="off"/>
<attribute name="OC_FARNELL" value="unknown" x="33.02" y="29.21" size="1.778" layer="27" display="off"/>
</element>
</elements>
<signals>
<signal name="GND">
<contactref element="IC2" pad="10"/>
<contactref element="IC1" pad="16"/>
<contactref element="IC1" pad="1"/>
<contactref element="IC1" pad="30"/>
<contactref element="SV1" pad="8"/>
<contactref element="SV1" pad="6"/>
<contactref element="SV1" pad="4"/>
<contactref element="SV1" pad="2"/>
<contactref element="IC2" pad="11"/>
<contactref element="EDGE1" pad="GND@1"/>
<contactref element="EDGE1" pad="GND@2"/>
<wire x1="45.75" y1="62.75" x2="45.75" y2="68.5" width="0.508" layer="1"/>
<wire x1="45.75" y1="68.5" x2="45.75" y2="62.75" width="0.508" layer="16"/>
<wire x1="45.75" y1="68.5" x2="45.72" y2="68.58" width="0.508" layer="1"/>
<wire x1="45.75" y1="68.5" x2="45.72" y2="68.58" width="0.508" layer="16"/>
<wire x1="3.875" y1="52.125" x2="3.875" y2="42" width="0.508" layer="16"/>
<wire x1="8.875" y1="57.125" x2="3.875" y2="52.125" width="0.508" layer="16"/>
<wire x1="3.875" y1="42" x2="3.81" y2="41.91" width="0.508" layer="16"/>
<wire x1="8.875" y1="57.125" x2="8.89" y2="57.15" width="0.508" layer="16"/>
<wire x1="26.75" y1="21.5" x2="26.75" y2="14" width="0.508" layer="1"/>
<wire x1="26.75" y1="14" x2="26.67" y2="13.97" width="0.508" layer="1"/>
<wire x1="26.75" y1="21.5" x2="26.67" y2="21.59" width="0.508" layer="1"/>
<wire x1="31.75" y1="30.5" x2="29.25" y2="30.5" width="0.508" layer="1"/>
<wire x1="29.25" y1="30.5" x2="29.21" y2="30.48" width="0.508" layer="1"/>
<wire x1="31.75" y1="30.5" x2="31.75" y2="30.48" width="0.508" layer="1"/>
<wire x1="41.875" y1="35.5" x2="41.875" y2="41.875" width="0.508" layer="16"/>
<wire x1="36.875" y1="30.5" x2="41.875" y2="35.5" width="0.508" layer="16"/>
<wire x1="41.875" y1="41.875" x2="41.91" y2="41.91" width="0.508" layer="16"/>
<wire x1="36.875" y1="30.5" x2="36.83" y2="30.48" width="0.508" layer="16"/>
<wire x1="36.625" y1="30.5" x2="34.375" y2="30.5" width="0.508" layer="16"/>
<wire x1="34.375" y1="30.5" x2="34.29" y2="30.48" width="0.508" layer="16"/>
<wire x1="36.625" y1="30.5" x2="36.83" y2="30.48" width="0.508" layer="16"/>
<wire x1="34.25" y1="30.5" x2="32" y2="30.5" width="0.508" layer="1"/>
<wire x1="32" y1="30.5" x2="31.75" y2="30.48" width="0.508" layer="1"/>
<wire x1="34.25" y1="30.5" x2="34.29" y2="30.48" width="0.508" layer="1"/>
<wire x1="26.75" y1="28" x2="26.75" y2="21.625" width="0.508" layer="16"/>
<wire x1="29.125" y1="30.375" x2="26.75" y2="28" width="0.508" layer="16"/>
<wire x1="26.75" y1="21.625" x2="26.67" y2="21.59" width="0.508" layer="16"/>
<wire x1="29.125" y1="30.375" x2="29.21" y2="30.48" width="0.508" layer="16"/>
<wire x1="4.25" y1="41.75" x2="4" y2="41.75" width="0.508" layer="16"/>
<wire x1="18" y1="28" x2="4.25" y2="41.75" width="0.508" layer="16"/>
<wire x1="26.75" y1="28" x2="18" y2="28" width="0.508" layer="16"/>
<wire x1="4" y1="41.75" x2="3.81" y2="41.91" width="0.508" layer="16"/>
<wire x1="46.625" y1="61.875" x2="45.75" y2="62.75" width="0.508" layer="16"/>
<wire x1="46.625" y1="46.75" x2="46.625" y2="61.875" width="0.508" layer="16"/>
<wire x1="42" y1="42.125" x2="46.625" y2="46.75" width="0.508" layer="16"/>
<wire x1="42" y1="42.125" x2="41.91" y2="41.91" width="0.508" layer="16"/>
<via x="45.75" y="62.75" extent="1-16" drill="0.6096"/>
<polygon width="0.4064" layer="16">
<vertex x="7.62" y="62.23"/>
<vertex x="7.62" y="59.69"/>
<vertex x="0" y="59.69"/>
<vertex x="0" y="6.35"/>
<vertex x="55.88" y="6.35"/>
<vertex x="55.88" y="59.69"/>
<vertex x="48.26" y="59.69"/>
<vertex x="48.26" y="62.23"/>
</polygon>
<polygon width="0.4064" layer="1">
<vertex x="7.62" y="62.23"/>
<vertex x="7.62" y="59.69"/>
<vertex x="0" y="59.69"/>
<vertex x="0" y="6.35"/>
<vertex x="55.88" y="6.35"/>
<vertex x="55.88" y="59.69"/>
<vertex x="48.26" y="59.69"/>
<vertex x="48.26" y="62.23"/>
</polygon>
</signal>
<signal name="VCC">
<contactref element="IC2" pad="20"/>
<contactref element="IC1" pad="32"/>
<contactref element="EDGE1" pad="VCC@1"/>
<contactref element="EDGE1" pad="VCC@2"/>
<wire x1="10.25" y1="62.75" x2="10.25" y2="68.5" width="0.508" layer="1"/>
<wire x1="10.25" y1="68.5" x2="10.25" y2="62.75" width="0.508" layer="16"/>
<wire x1="10.25" y1="68.5" x2="10.16" y2="68.58" width="0.508" layer="1"/>
<wire x1="10.25" y1="68.5" x2="10.16" y2="68.58" width="0.508" layer="16"/>
<wire x1="47" y1="11.375" x2="49.5" y2="13.875" width="0.508" layer="1"/>
<wire x1="5" y1="11.375" x2="47" y2="11.375" width="0.508" layer="1"/>
<wire x1="5" y1="56" x2="5" y2="55" width="0.508" layer="1"/>
<wire x1="5" y1="55" x2="5" y2="11.375" width="0.508" layer="1"/>
<wire x1="3.875" y1="57.125" x2="5" y2="56" width="0.508" layer="1"/>
<wire x1="49.5" y1="13.875" x2="49.53" y2="13.97" width="0.508" layer="1"/>
<wire x1="3.875" y1="57.125" x2="3.81" y2="57.15" width="0.508" layer="1"/>
<wire x1="10.25" y1="56.25" x2="10.25" y2="62.75" width="0.508" layer="16"/>
<wire x1="9" y1="55" x2="10.25" y2="56.25" width="0.508" layer="16"/>
<wire x1="5" y1="55" x2="9" y2="55" width="0.508" layer="1"/>
<via x="10.25" y="62.75" extent="1-16" drill="0.6096"/>
<via x="9" y="55" extent="1-16" drill="0.6096"/>
</signal>
<signal name="A13">
<contactref element="EDGE1" pad="A13"/>
<contactref element="IC1" pad="28"/>
<wire x1="15.125" y1="58.375" x2="14" y2="57.25" width="0.508" layer="1"/>
<wire x1="15.125" y1="68.5" x2="15.125" y2="58.375" width="0.508" layer="1"/>
<wire x1="14" y1="57.25" x2="13.97" y2="57.15" width="0.508" layer="1"/>
<wire x1="15.125" y1="68.5" x2="15.24" y2="68.58" width="0.508" layer="1"/>
</signal>
<signal name="A12">
<contactref element="EDGE1" pad="A12"/>
<contactref element="IC1" pad="4"/>
<wire x1="12.625" y1="43.125" x2="11.5" y2="42" width="0.508" layer="1"/>
<wire x1="12.625" y1="68.5" x2="12.625" y2="43.125" width="0.508" layer="1"/>
<wire x1="11.5" y1="42" x2="11.43" y2="41.91" width="0.508" layer="1"/>
<wire x1="12.625" y1="68.5" x2="12.7" y2="68.58" width="0.508" layer="1"/>
</signal>
<signal name="A11">
<contactref element="EDGE1" pad="A11"/>
<contactref element="IC1" pad="25"/>
<wire x1="22.75" y1="58.375" x2="21.625" y2="57.25" width="0.508" layer="1"/>
<wire x1="22.75" y1="68.5" x2="22.75" y2="58.375" width="0.508" layer="1"/>
<wire x1="21.625" y1="57.25" x2="21.59" y2="57.15" width="0.508" layer="1"/>
<wire x1="22.75" y1="68.5" x2="22.86" y2="68.58" width="0.508" layer="1"/>
</signal>
<signal name="A10">
<contactref element="EDGE1" pad="A10"/>
<contactref element="IC1" pad="23"/>
<wire x1="26.625" y1="63.125" x2="26.625" y2="57.25" width="0.508" layer="16"/>
<wire x1="25.5" y1="64.25" x2="26.625" y2="63.125" width="0.508" layer="16"/>
<wire x1="25.5" y1="68.5" x2="25.5" y2="64.25" width="0.508" layer="16"/>
<wire x1="26.625" y1="57.25" x2="26.67" y2="57.15" width="0.508" layer="16"/>
<wire x1="25.5" y1="68.5" x2="25.4" y2="68.58" width="0.508" layer="16"/>
</signal>
<signal name="A9">
<contactref element="EDGE1" pad="A9"/>
<contactref element="IC1" pad="26"/>
<wire x1="20.25" y1="58.375" x2="19.125" y2="57.25" width="0.508" layer="1"/>
<wire x1="20.25" y1="68.5" x2="20.25" y2="58.375" width="0.508" layer="1"/>
<wire x1="19.125" y1="57.25" x2="19.05" y2="57.15" width="0.508" layer="1"/>
<wire x1="20.25" y1="68.5" x2="20.32" y2="68.58" width="0.508" layer="1"/>
</signal>
<signal name="A8">
<contactref element="IC1" pad="27"/>
<contactref element="EDGE1" pad="A8"/>
<wire x1="17.75" y1="58.375" x2="16.625" y2="57.25" width="0.508" layer="1"/>
<wire x1="17.75" y1="68.5" x2="17.75" y2="58.375" width="0.508" layer="1"/>
<wire x1="16.625" y1="57.25" x2="16.51" y2="57.15" width="0.508" layer="1"/>
<wire x1="17.75" y1="68.5" x2="17.78" y2="68.58" width="0.508" layer="1"/>
</signal>
<signal name="A7">
<contactref element="IC1" pad="5"/>
<contactref element="EDGE1" pad="A7"/>
<wire x1="13.875" y1="55" x2="13.875" y2="42" width="0.508" layer="16"/>
<wire x1="12.75" y1="56.125" x2="13.875" y2="55" width="0.508" layer="16"/>
<wire x1="12.75" y1="68.5" x2="12.75" y2="56.125" width="0.508" layer="16"/>
<wire x1="13.875" y1="42" x2="13.97" y2="41.91" width="0.508" layer="16"/>
<wire x1="12.75" y1="68.5" x2="12.7" y2="68.58" width="0.508" layer="16"/>
</signal>
<signal name="A6">
<contactref element="IC1" pad="6"/>
<contactref element="EDGE1" pad="A6"/>
<wire x1="16.5" y1="54.875" x2="16.5" y2="42" width="0.508" layer="16"/>
<wire x1="15.25" y1="56.125" x2="16.5" y2="54.875" width="0.508" layer="16"/>
<wire x1="15.25" y1="68.5" x2="15.25" y2="56.125" width="0.508" layer="16"/>
<wire x1="16.5" y1="42" x2="16.51" y2="41.91" width="0.508" layer="16"/>
<wire x1="15.25" y1="68.5" x2="15.24" y2="68.58" width="0.508" layer="16"/>
</signal>
<signal name="A5">
<contactref element="IC1" pad="7"/>
<contactref element="EDGE1" pad="A5"/>
<wire x1="19" y1="54.875" x2="19" y2="42" width="0.508" layer="16"/>
<wire x1="17.875" y1="56" x2="19" y2="54.875" width="0.508" layer="16"/>
<wire x1="17.875" y1="68.5" x2="17.875" y2="56" width="0.508" layer="16"/>
<wire x1="19" y1="42" x2="19.05" y2="41.91" width="0.508" layer="16"/>
<wire x1="17.875" y1="68.5" x2="17.78" y2="68.58" width="0.508" layer="16"/>
</signal>
<signal name="A4">
<contactref element="IC1" pad="8"/>
<contactref element="EDGE1" pad="A4"/>
<wire x1="21.5" y1="54.875" x2="21.5" y2="42" width="0.508" layer="16"/>
<wire x1="20.375" y1="56" x2="21.5" y2="54.875" width="0.508" layer="16"/>
<wire x1="20.375" y1="68.5" x2="20.375" y2="56" width="0.508" layer="16"/>
<wire x1="21.5" y1="42" x2="21.59" y2="41.91" width="0.508" layer="16"/>
<wire x1="20.375" y1="68.5" x2="20.32" y2="68.58" width="0.508" layer="16"/>
</signal>
<signal name="A3">
<contactref element="IC1" pad="9"/>
<contactref element="EDGE1" pad="A3"/>
<wire x1="24.125" y1="54.875" x2="24.125" y2="42" width="0.508" layer="16"/>
<wire x1="22.875" y1="56.125" x2="24.125" y2="54.875" width="0.508" layer="16"/>
<wire x1="22.875" y1="68.5" x2="22.875" y2="56.125" width="0.508" layer="16"/>
<wire x1="24.125" y1="42" x2="24.13" y2="41.91" width="0.508" layer="16"/>
<wire x1="22.875" y1="68.5" x2="22.86" y2="68.58" width="0.508" layer="16"/>
</signal>
<signal name="A2">
<contactref element="IC1" pad="10"/>
<contactref element="EDGE1" pad="A2"/>
<wire x1="25.5" y1="43.125" x2="26.625" y2="42" width="0.508" layer="1"/>
<wire x1="25.5" y1="68.5" x2="25.5" y2="43.125" width="0.508" layer="1"/>
<wire x1="26.625" y1="42" x2="26.67" y2="41.91" width="0.508" layer="1"/>
<wire x1="25.5" y1="68.5" x2="25.4" y2="68.58" width="0.508" layer="1"/>
</signal>
<signal name="A1">
<contactref element="IC1" pad="11"/>
<contactref element="EDGE1" pad="A1"/>
<wire x1="28" y1="43.125" x2="29.125" y2="42" width="0.508" layer="1"/>
<wire x1="28" y1="68.5" x2="28" y2="43.125" width="0.508" layer="1"/>
<wire x1="29.125" y1="42" x2="29.21" y2="41.91" width="0.508" layer="1"/>
<wire x1="28" y1="68.5" x2="27.94" y2="68.58" width="0.508" layer="1"/>
</signal>
<signal name="A0">
<contactref element="IC1" pad="12"/>
<contactref element="EDGE1" pad="A0"/>
<wire x1="31.75" y1="52.25" x2="31.75" y2="41.91" width="0.508" layer="16"/>
<wire x1="28" y1="56" x2="31.75" y2="52.25" width="0.508" layer="16"/>
<wire x1="28" y1="68.5" x2="28" y2="56" width="0.508" layer="16"/>
<wire x1="28" y1="68.5" x2="27.94" y2="68.58" width="0.508" layer="16"/>
</signal>
<signal name="D7">
<contactref element="EDGE1" pad="D7"/>
<contactref element="IC1" pad="21"/>
<wire x1="30.5" y1="58.5" x2="31.75" y2="57.25" width="0.508" layer="1"/>
<wire x1="30.5" y1="68.5" x2="30.5" y2="58.5" width="0.508" layer="1"/>
<wire x1="31.75" y1="57.25" x2="31.75" y2="57.15" width="0.508" layer="1"/>
<wire x1="30.5" y1="68.5" x2="30.48" y2="68.58" width="0.508" layer="1"/>
</signal>
<signal name="D6">
<contactref element="EDGE1" pad="D6"/>
<contactref element="IC1" pad="20"/>
<wire x1="33.125" y1="58.375" x2="34.25" y2="57.25" width="0.508" layer="1"/>
<wire x1="33.125" y1="68.5" x2="33.125" y2="58.375" width="0.508" layer="1"/>
<wire x1="34.25" y1="57.25" x2="34.29" y2="57.15" width="0.508" layer="1"/>
<wire x1="33.125" y1="68.5" x2="33.02" y2="68.58" width="0.508" layer="1"/>
</signal>
<signal name="D5">
<contactref element="EDGE1" pad="D5"/>
<contactref element="IC1" pad="19"/>
<wire x1="35.625" y1="58.375" x2="36.75" y2="57.25" width="0.508" layer="1"/>
<wire x1="35.625" y1="68.5" x2="35.625" y2="58.375" width="0.508" layer="1"/>
<wire x1="36.75" y1="57.25" x2="36.83" y2="57.15" width="0.508" layer="1"/>
<wire x1="35.625" y1="68.5" x2="35.56" y2="68.58" width="0.508" layer="1"/>
</signal>
<signal name="D4">
<contactref element="EDGE1" pad="D4"/>
<contactref element="IC1" pad="18"/>
<wire x1="38.125" y1="58.375" x2="39.25" y2="57.25" width="0.508" layer="1"/>
<wire x1="38.125" y1="68.5" x2="38.125" y2="58.375" width="0.508" layer="1"/>
<wire x1="39.25" y1="57.25" x2="39.37" y2="57.15" width="0.508" layer="1"/>
<wire x1="38.125" y1="68.5" x2="38.1" y2="68.58" width="0.508" layer="1"/>
</signal>
<signal name="D3">
<contactref element="EDGE1" pad="D3"/>
<contactref element="IC1" pad="17"/>
<wire x1="41.875" y1="60.625" x2="41.875" y2="57.25" width="0.508" layer="16"/>
<wire x1="38.125" y1="64.375" x2="41.875" y2="60.625" width="0.508" layer="16"/>
<wire x1="38.125" y1="68.5" x2="38.125" y2="64.375" width="0.508" layer="16"/>
<wire x1="41.875" y1="57.25" x2="41.91" y2="57.15" width="0.508" layer="16"/>
<wire x1="38.125" y1="68.5" x2="38.1" y2="68.58" width="0.508" layer="16"/>
</signal>
<signal name="D2">
<contactref element="EDGE1" pad="D2"/>
<contactref element="IC1" pad="15"/>
<wire x1="39.25" y1="52.375" x2="39.25" y2="42" width="0.508" layer="16"/>
<wire x1="35.625" y1="56" x2="39.25" y2="52.375" width="0.508" layer="16"/>
<wire x1="35.625" y1="68.5" x2="35.625" y2="56" width="0.508" layer="16"/>
<wire x1="39.25" y1="42" x2="39.37" y2="41.91" width="0.508" layer="16"/>
<wire x1="35.625" y1="68.5" x2="35.56" y2="68.58" width="0.508" layer="16"/>
</signal>
<signal name="D1">
<contactref element="EDGE1" pad="D1"/>
<contactref element="IC1" pad="14"/>
<wire x1="36.75" y1="52.375" x2="36.75" y2="42" width="0.508" layer="16"/>
<wire x1="33.125" y1="56" x2="36.75" y2="52.375" width="0.508" layer="16"/>
<wire x1="33.125" y1="68.5" x2="33.125" y2="56" width="0.508" layer="16"/>
<wire x1="36.75" y1="42" x2="36.83" y2="41.91" width="0.508" layer="16"/>
<wire x1="33.125" y1="68.5" x2="33.02" y2="68.58" width="0.508" layer="16"/>
</signal>
<signal name="D0">
<contactref element="EDGE1" pad="D0"/>
<contactref element="IC1" pad="13"/>
<wire x1="34.25" y1="52.375" x2="34.25" y2="42" width="0.508" layer="16"/>
<wire x1="30.5" y1="56.125" x2="34.25" y2="52.375" width="0.508" layer="16"/>
<wire x1="30.5" y1="68.5" x2="30.5" y2="56.125" width="0.508" layer="16"/>
<wire x1="34.25" y1="42" x2="34.29" y2="41.91" width="0.508" layer="16"/>
<wire x1="30.5" y1="68.5" x2="30.48" y2="68.58" width="0.508" layer="16"/>
</signal>
<signal name="N$1">
<contactref element="IC2" pad="12"/>
<contactref element="IC1" pad="29"/>
<wire x1="27.875" y1="15.25" x2="29.125" y2="14" width="0.508" layer="1"/>
<wire x1="27.875" y1="23.125" x2="27.875" y2="15.25" width="0.508" layer="1"/>
<wire x1="10.25" y1="40.75" x2="27.875" y2="23.125" width="0.508" layer="1"/>
<wire x1="10.25" y1="56" x2="10.25" y2="40.75" width="0.508" layer="1"/>
<wire x1="11.375" y1="57.125" x2="10.25" y2="56" width="0.508" layer="1"/>
<wire x1="29.125" y1="14" x2="29.21" y2="13.97" width="0.508" layer="1"/>
<wire x1="11.375" y1="57.125" x2="11.43" y2="57.15" width="0.508" layer="1"/>
</signal>
<signal name="N$2">
<contactref element="IC2" pad="13"/>
<contactref element="IC1" pad="3"/>
<wire x1="31.75" y1="19.25" x2="31.75" y2="13.97" width="0.508" layer="16"/>
<wire x1="30.5" y1="20.5" x2="31.75" y2="19.25" width="0.508" layer="16"/>
<wire x1="30.5" y1="31" x2="30.5" y2="20.5" width="0.508" layer="16"/>
<wire x1="29.25" y1="32.25" x2="30.5" y2="31" width="0.508" layer="16"/>
<wire x1="18.625" y1="32.25" x2="29.25" y2="32.25" width="0.508" layer="16"/>
<wire x1="9" y1="41.875" x2="18.625" y2="32.25" width="0.508" layer="16"/>
<wire x1="9" y1="41.875" x2="8.89" y2="41.91" width="0.508" layer="16"/>
</signal>
<signal name="N$7">
<contactref element="EDGE1" pad="CS1"/>
<contactref element="IC2" pad="2"/>
<wire x1="45.625" y1="22.875" x2="46.875" y2="21.625" width="0.508" layer="1"/>
<wire x1="45.625" y1="61.5" x2="45.625" y2="22.875" width="0.508" layer="1"/>
<wire x1="43.25" y1="63.875" x2="45.625" y2="61.5" width="0.508" layer="16"/>
<wire x1="43.25" y1="68.5" x2="43.25" y2="63.875" width="0.508" layer="16"/>
<wire x1="46.875" y1="21.625" x2="46.99" y2="21.59" width="0.508" layer="1"/>
<wire x1="43.25" y1="68.5" x2="43.18" y2="68.58" width="0.508" layer="16"/>
<via x="45.625" y="61.5" extent="1-16" drill="0.6096"/>
</signal>
<signal name="N$8">
<contactref element="EDGE1" pad="CS2"/>
<contactref element="IC2" pad="3"/>
<wire x1="44.125" y1="21.875" x2="44.375" y2="21.625" width="0.508" layer="1"/>
<wire x1="44.125" y1="67.625" x2="44.125" y2="21.875" width="0.508" layer="1"/>
<wire x1="43.25" y1="68.5" x2="44.125" y2="67.625" width="0.508" layer="1"/>
<wire x1="44.375" y1="21.625" x2="44.45" y2="21.59" width="0.508" layer="1"/>
<wire x1="43.25" y1="68.5" x2="43.18" y2="68.58" width="0.508" layer="1"/>
</signal>
<signal name="N$9">
<contactref element="EDGE1" pad="CS3"/>
<contactref element="IC2" pad="4"/>
<wire x1="43.125" y1="22.75" x2="42" y2="21.625" width="0.508" layer="1"/>
<wire x1="43.125" y1="61.875" x2="43.125" y2="22.75" width="0.508" layer="1"/>
<wire x1="40.75" y1="64.25" x2="43.125" y2="61.875" width="0.508" layer="16"/>
<wire x1="40.75" y1="68.5" x2="40.75" y2="64.25" width="0.508" layer="16"/>
<wire x1="42" y1="21.625" x2="41.91" y2="21.59" width="0.508" layer="1"/>
<wire x1="40.75" y1="68.5" x2="40.64" y2="68.58" width="0.508" layer="16"/>
<via x="43.125" y="61.875" extent="1-16" drill="0.6096"/>
</signal>
<signal name="N$10">
<contactref element="EDGE1" pad="CS4"/>
<contactref element="IC2" pad="5"/>
<wire x1="40.625" y1="22.875" x2="39.375" y2="21.625" width="0.508" layer="1"/>
<wire x1="40.625" y1="68.5" x2="40.625" y2="22.875" width="0.508" layer="1"/>
<wire x1="39.375" y1="21.625" x2="39.37" y2="21.59" width="0.508" layer="1"/>
<wire x1="40.625" y1="68.5" x2="40.64" y2="68.58" width="0.508" layer="1"/>
</signal>
<signal name="N$3">
<contactref element="IC2" pad="14"/>
<contactref element="IC1" pad="2"/>
<wire x1="8.25" y1="40" x2="6.375" y2="41.875" width="0.508" layer="1"/>
<wire x1="8.25" y1="30.125" x2="8.25" y2="40" width="0.508" layer="1"/>
<wire x1="26.25" y1="12.125" x2="8.25" y2="30.125" width="0.508" layer="1"/>
<wire x1="34.25" y1="12.125" x2="26.25" y2="12.125" width="0.508" layer="1"/>
<wire x1="34.25" y1="13.875" x2="34.25" y2="12.125" width="0.508" layer="1"/>
<wire x1="6.375" y1="41.875" x2="6.35" y2="41.91" width="0.508" layer="1"/>
<wire x1="34.25" y1="13.875" x2="34.29" y2="13.97" width="0.508" layer="1"/>
</signal>
<signal name="N$12">
<contactref element="SV1" pad="1"/>
<contactref element="IC2" pad="9"/>
<wire x1="29.25" y1="27.875" x2="29.25" y2="21.625" width="0.508" layer="1"/>
<wire x1="29.25" y1="21.625" x2="29.21" y2="21.59" width="0.508" layer="1"/>
<wire x1="29.25" y1="27.875" x2="29.21" y2="27.94" width="0.508" layer="1"/>
</signal>
<signal name="N$11">
<contactref element="SV1" pad="7"/>
<contactref element="IC2" pad="6"/>
<wire x1="36.875" y1="27.875" x2="36.875" y2="21.625" width="0.508" layer="1"/>
<wire x1="36.875" y1="21.625" x2="36.83" y2="21.59" width="0.508" layer="1"/>
<wire x1="36.875" y1="27.875" x2="36.83" y2="27.94" width="0.508" layer="1"/>
</signal>
<signal name="N$4">
<contactref element="IC2" pad="15"/>
<contactref element="IC1" pad="31"/>
<wire x1="36.5" y1="13.875" x2="36.75" y2="13.875" width="0.508" layer="16"/>
<wire x1="34.75" y1="12.125" x2="36.5" y2="13.875" width="0.508" layer="16"/>
<wire x1="26.25" y1="12.125" x2="34.75" y2="12.125" width="0.508" layer="16"/>
<wire x1="2.75" y1="35.625" x2="26.25" y2="12.125" width="0.508" layer="16"/>
<wire x1="2.75" y1="40.625" x2="2.75" y2="35.625" width="0.508" layer="16"/>
<wire x1="2.625" y1="40.75" x2="2.75" y2="40.625" width="0.508" layer="16"/>
<wire x1="2.625" y1="53.5" x2="2.625" y2="40.75" width="0.508" layer="16"/>
<wire x1="6.25" y1="57.125" x2="2.625" y2="53.5" width="0.508" layer="16"/>
<wire x1="36.75" y1="13.875" x2="36.83" y2="13.97" width="0.508" layer="16"/>
<wire x1="6.25" y1="57.125" x2="6.35" y2="57.15" width="0.508" layer="16"/>
</signal>
<signal name="N$5">
<contactref element="IC2" pad="16"/>
<contactref element="IC1" pad="24"/>
<wire x1="33.5" y1="19.75" x2="39.25" y2="14" width="0.508" layer="1"/>
<wire x1="30.5" y1="19.75" x2="33.5" y2="19.75" width="0.508" layer="1"/>
<wire x1="30.5" y1="28.5" x2="30.5" y2="19.75" width="0.508" layer="1"/>
<wire x1="29.75" y1="29.25" x2="30.5" y2="28.5" width="0.508" layer="1"/>
<wire x1="23" y1="29.25" x2="29.75" y2="29.25" width="0.508" layer="1"/>
<wire x1="23" y1="56" x2="23" y2="29.25" width="0.508" layer="1"/>
<wire x1="24.125" y1="57.125" x2="23" y2="56" width="0.508" layer="1"/>
<wire x1="39.25" y1="14" x2="39.37" y2="13.97" width="0.508" layer="1"/>
<wire x1="24.125" y1="57.125" x2="24.13" y2="57.15" width="0.508" layer="1"/>
</signal>
<signal name="N$6">
<contactref element="IC2" pad="17"/>
<contactref element="IC1" pad="22"/>
<wire x1="38.125" y1="17.75" x2="41.875" y2="14" width="0.508" layer="1"/>
<wire x1="38.125" y1="48.25" x2="38.125" y2="17.75" width="0.508" layer="1"/>
<wire x1="29.25" y1="57.125" x2="38.125" y2="48.25" width="0.508" layer="1"/>
<wire x1="41.875" y1="14" x2="41.91" y2="13.97" width="0.508" layer="1"/>
<wire x1="29.25" y1="57.125" x2="29.21" y2="57.15" width="0.508" layer="1"/>
</signal>
<signal name="N$13">
<contactref element="IC2" pad="8"/>
<contactref element="SV1" pad="3"/>
<wire x1="31.75" y1="27.94" x2="31.75" y2="21.59" width="0.508" layer="1"/>
</signal>
<signal name="N$14">
<contactref element="IC2" pad="7"/>
<contactref element="SV1" pad="5"/>
<wire x1="34.375" y1="27.875" x2="34.375" y2="21.625" width="0.508" layer="1"/>
<wire x1="34.375" y1="21.625" x2="34.29" y2="21.59" width="0.508" layer="1"/>
<wire x1="34.375" y1="27.875" x2="34.29" y2="27.94" width="0.508" layer="1"/>
</signal>
</signals>
</board>
</drawing>
</eagle>
