<?xml version="1.0" encoding="utf-8"?>
<!DOCTYPE eagle SYSTEM "eagle.dtd">
<eagle version="7.2.0">
<drawing>
<settings>
<setting alwaysvectorfont="no"/>
<setting verticaltext="up"/>
</settings>
<grid distance="0.1" unitdist="inch" unit="inch" style="lines" multiple="1" display="no" altdistance="0.01" altunitdist="inch" altunit="inch"/>
<layers>
<layer number="1" name="Top" color="4" fill="1" visible="no" active="yes"/>
<layer number="16" name="Bottom" color="1" fill="1" visible="yes" active="yes"/>
<layer number="17" name="Pads" color="2" fill="1" visible="yes" active="yes"/>
<layer number="18" name="Vias" color="2" fill="1" visible="no" active="yes"/>
<layer number="19" name="Unrouted" color="6" fill="1" visible="no" active="yes"/>
<layer number="20" name="Dimension" color="15" fill="1" visible="no" active="yes"/>
<layer number="21" name="tPlace" color="7" fill="1" visible="yes" active="yes"/>
<layer number="22" name="bPlace" color="7" fill="1" visible="no" active="yes"/>
<layer number="23" name="tOrigins" color="15" fill="1" visible="no" active="yes"/>
<layer number="24" name="bOrigins" color="15" fill="1" visible="no" active="yes"/>
<layer number="25" name="tNames" color="7" fill="1" visible="no" active="yes"/>
<layer number="26" name="bNames" color="7" fill="1" visible="no" active="yes"/>
<layer number="27" name="tValues" color="7" fill="1" visible="no" active="yes"/>
<layer number="28" name="bValues" color="7" fill="1" visible="no" active="yes"/>
<layer number="29" name="tStop" color="7" fill="3" visible="no" active="yes"/>
<layer number="30" name="bStop" color="7" fill="6" visible="no" active="yes"/>
<layer number="31" name="tCream" color="7" fill="4" visible="no" active="yes"/>
<layer number="32" name="bCream" color="7" fill="5" visible="no" active="yes"/>
<layer number="33" name="tFinish" color="6" fill="3" visible="no" active="yes"/>
<layer number="34" name="bFinish" color="6" fill="6" visible="no" active="yes"/>
<layer number="35" name="tGlue" color="7" fill="4" visible="no" active="yes"/>
<layer number="36" name="bGlue" color="7" fill="5" visible="no" active="yes"/>
<layer number="37" name="tTest" color="7" fill="1" visible="no" active="yes"/>
<layer number="38" name="bTest" color="7" fill="1" visible="no" active="yes"/>
<layer number="39" name="tKeepout" color="4" fill="11" visible="no" active="yes"/>
<layer number="40" name="bKeepout" color="1" fill="11" visible="no" active="yes"/>
<layer number="41" name="tRestrict" color="4" fill="10" visible="no" active="yes"/>
<layer number="42" name="bRestrict" color="1" fill="10" visible="no" active="yes"/>
<layer number="43" name="vRestrict" color="2" fill="10" visible="no" active="yes"/>
<layer number="44" name="Drills" color="7" fill="1" visible="no" active="yes"/>
<layer number="45" name="Holes" color="7" fill="1" visible="no" active="yes"/>
<layer number="46" name="Milling" color="3" fill="1" visible="no" active="yes"/>
<layer number="47" name="Measures" color="7" fill="1" visible="no" active="yes"/>
<layer number="48" name="Document" color="7" fill="1" visible="no" active="yes"/>
<layer number="49" name="Reference" color="7" fill="1" visible="no" active="yes"/>
<layer number="51" name="tDocu" color="7" fill="1" visible="no" active="yes"/>
<layer number="52" name="bDocu" color="7" fill="1" visible="no" active="yes"/>
<layer number="90" name="Modules" color="5" fill="1" visible="yes" active="yes"/>
<layer number="91" name="Nets" color="2" fill="1" visible="yes" active="yes"/>
<layer number="92" name="Busses" color="1" fill="1" visible="yes" active="yes"/>
<layer number="93" name="Pins" color="2" fill="1" visible="yes" active="yes"/>
<layer number="94" name="Symbols" color="4" fill="1" visible="yes" active="yes"/>
<layer number="95" name="Names" color="7" fill="1" visible="yes" active="yes"/>
<layer number="96" name="Values" color="7" fill="1" visible="yes" active="yes"/>
<layer number="97" name="Info" color="7" fill="1" visible="yes" active="yes"/>
<layer number="98" name="Guide" color="6" fill="1" visible="yes" active="yes"/>
</layers>
<library>
<packages>
<package name="EDGE_CONNECTOR_30">
<smd name="VCC@2" x="-29.21" y="6.35" dx="10.16" dy="1.9304" layer="1" rot="R90"/>
<smd name="A12" x="-26.67" y="6.35" dx="10.16" dy="1.9304" layer="1" rot="R90"/>
<smd name="A13" x="-24.13" y="6.35" dx="10.16" dy="1.9304" layer="1" rot="R90"/>
<smd name="A8" x="-21.59" y="6.35" dx="10.16" dy="1.9304" layer="1" rot="R90"/>
<smd name="A9" x="-19.05" y="6.35" dx="10.16" dy="1.9304" layer="1" rot="R90"/>
<smd name="A11" x="-16.51" y="6.35" dx="10.16" dy="1.9304" layer="1" rot="R90"/>
<smd name="A2" x="-13.97" y="6.35" dx="10.16" dy="1.9304" layer="1" rot="R90"/>
<smd name="A1" x="-11.43" y="6.35" dx="10.16" dy="1.9304" layer="1" rot="R90"/>
<smd name="D7" x="-8.89" y="6.35" dx="10.16" dy="1.9304" layer="1" rot="R90"/>
<smd name="D6" x="-6.35" y="6.35" dx="10.16" dy="1.9304" layer="1" rot="R90"/>
<smd name="D5" x="-3.81" y="6.35" dx="10.16" dy="1.9304" layer="1" rot="R90"/>
<smd name="D4" x="-1.27" y="6.35" dx="10.16" dy="1.9304" layer="1" rot="R90"/>
<smd name="CS4" x="1.27" y="6.35" dx="10.16" dy="1.9304" layer="1" rot="R90"/>
<smd name="CS2" x="3.81" y="6.35" dx="10.16" dy="1.9304" layer="1" rot="R90"/>
<smd name="GND@2" x="6.35" y="6.35" dx="10.16" dy="1.9304" layer="1" rot="R90"/>
<smd name="VCC@1" x="-29.21" y="6.35" dx="10.16" dy="1.9304" layer="16" rot="R90"/>
<smd name="A7" x="-26.67" y="6.35" dx="10.16" dy="1.9304" layer="16" rot="R90"/>
<smd name="A6" x="-24.13" y="6.35" dx="10.16" dy="1.9304" layer="16" rot="R90"/>
<smd name="A5" x="-21.59" y="6.35" dx="10.16" dy="1.9304" layer="16" rot="R90"/>
<smd name="A4" x="-19.05" y="6.35" dx="10.16" dy="1.9304" layer="16" rot="R90"/>
<smd name="A3" x="-16.51" y="6.35" dx="10.16" dy="1.9304" layer="16" rot="R90"/>
<smd name="A10" x="-13.97" y="6.35" dx="10.16" dy="1.9304" layer="16" rot="R90"/>
<smd name="A0" x="-11.43" y="6.35" dx="10.16" dy="1.9304" layer="16" rot="R90"/>
<smd name="D0" x="-8.89" y="6.35" dx="10.16" dy="1.9304" layer="16" rot="R90"/>
<smd name="D1" x="-6.35" y="6.35" dx="10.16" dy="1.9304" layer="16" rot="R90"/>
<smd name="D2" x="-3.81" y="6.35" dx="10.16" dy="1.9304" layer="16" rot="R90"/>
<smd name="D3" x="-1.27" y="6.35" dx="10.16" dy="1.9304" layer="16" rot="R90"/>
<smd name="CS3" x="1.27" y="6.35" dx="10.16" dy="1.9304" layer="16" rot="R90"/>
<smd name="CS1" x="3.81" y="6.35" dx="10.16" dy="1.9304" layer="16" rot="R90"/>
<smd name="GND@1" x="6.35" y="6.35" dx="10.16" dy="1.9304" layer="16" rot="R90"/>
</package>
</packages>
<symbols>
<symbol name="BUS30">
<pin name="A0" x="-71.12" y="20.32" length="short" rot="R90"/>
<pin name="A1" x="-68.58" y="20.32" length="short" rot="R90"/>
<pin name="A3" x="-63.5" y="20.32" length="short" rot="R90"/>
<pin name="A4" x="-60.96" y="20.32" length="short" rot="R90"/>
<pin name="A5" x="-58.42" y="20.32" length="short" rot="R90"/>
<pin name="A6" x="-55.88" y="20.32" length="short" rot="R90"/>
<pin name="A7" x="-53.34" y="20.32" length="short" rot="R90"/>
<pin name="A8" x="-50.8" y="20.32" length="short" rot="R90"/>
<pin name="A9" x="-48.26" y="20.32" length="short" rot="R90"/>
<pin name="A10" x="-45.72" y="20.32" length="short" rot="R90"/>
<pin name="A11" x="-43.18" y="20.32" length="short" rot="R90"/>
<pin name="A12" x="-40.64" y="20.32" length="short" rot="R90"/>
<pin name="A13" x="-38.1" y="20.32" length="short" rot="R90"/>
<pin name="VCC" x="-76.2" y="20.32" length="short" rot="R90"/>
<pin name="VCC(2)" x="-73.66" y="20.32" length="short" rot="R90"/>
<pin name="GND" x="-5.08" y="20.32" length="short" rot="R90"/>
<pin name="GND(2)" x="-2.54" y="20.32" length="short" rot="R90"/>
<pin name="D0" x="-25.4" y="20.32" length="short" rot="R90"/>
<pin name="D1" x="-22.86" y="20.32" length="short" rot="R90"/>
<pin name="D2" x="-20.32" y="20.32" length="short" rot="R90"/>
<pin name="D3" x="-17.78" y="20.32" length="short" rot="R90"/>
<pin name="D4" x="-15.24" y="20.32" length="short" rot="R90"/>
<pin name="D5" x="-12.7" y="20.32" length="short" rot="R90"/>
<pin name="D6" x="-10.16" y="20.32" length="short" rot="R90"/>
<pin name="D7" x="-7.62" y="20.32" length="short" rot="R90"/>
<pin name="CS1" x="-35.56" y="20.32" length="short" rot="R90"/>
<pin name="CS2" x="-33.02" y="20.32" length="short" rot="R90"/>
<pin name="CS3" x="-30.48" y="20.32" length="short" rot="R90"/>
<pin name="CS4" x="-27.94" y="20.32" length="short" rot="R90"/>
<pin name="A2" x="-66.04" y="20.32" length="short" rot="R90"/>
</symbol>
</symbols>
<devicesets>
<deviceset name="SVI_CARTRIDGE" prefix="EDGE">
<gates>
<gate name="G$1" symbol="BUS30" x="-7.62" y="20.32"/>
</gates>
<devices>
<device name="" package="EDGE_CONNECTOR_30">
<connects>
<connect gate="G$1" pin="A0" pad="A0"/>
<connect gate="G$1" pin="A1" pad="A1"/>
<connect gate="G$1" pin="A10" pad="A10"/>
<connect gate="G$1" pin="A11" pad="A11"/>
<connect gate="G$1" pin="A12" pad="A12"/>
<connect gate="G$1" pin="A13" pad="A13"/>
<connect gate="G$1" pin="A2" pad="A2"/>
<connect gate="G$1" pin="A3" pad="A3"/>
<connect gate="G$1" pin="A4" pad="A4"/>
<connect gate="G$1" pin="A5" pad="A5"/>
<connect gate="G$1" pin="A6" pad="A6"/>
<connect gate="G$1" pin="A7" pad="A7"/>
<connect gate="G$1" pin="A8" pad="A8"/>
<connect gate="G$1" pin="A9" pad="A9"/>
<connect gate="G$1" pin="CS1" pad="CS1"/>
<connect gate="G$1" pin="CS2" pad="CS2"/>
<connect gate="G$1" pin="CS3" pad="CS3"/>
<connect gate="G$1" pin="CS4" pad="CS4"/>
<connect gate="G$1" pin="D0" pad="D0"/>
<connect gate="G$1" pin="D1" pad="D1"/>
<connect gate="G$1" pin="D2" pad="D2"/>
<connect gate="G$1" pin="D3" pad="D3"/>
<connect gate="G$1" pin="D4" pad="D4"/>
<connect gate="G$1" pin="D5" pad="D5"/>
<connect gate="G$1" pin="D6" pad="D6"/>
<connect gate="G$1" pin="D7" pad="D7"/>
<connect gate="G$1" pin="GND" pad="GND@1"/>
<connect gate="G$1" pin="GND(2)" pad="GND@2"/>
<connect gate="G$1" pin="VCC" pad="VCC@1"/>
<connect gate="G$1" pin="VCC(2)" pad="VCC@2"/>
</connects>
<technologies>
<technology name=""/>
</technologies>
</device>
</devices>
</deviceset>
</devicesets>
</library>
</drawing>
</eagle>
